module infinilapse-unified

go 1.19

require (
	cloud.google.com/go/storage v1.28.0
	github.com/Khan/genqlient v0.5.0
	github.com/bitfield/script v0.22.0
	github.com/go-co-op/gocron v1.18.0
	github.com/hypebeast/go-osc v0.0.0-20220308234300-cec5a8a1e5f5
	google.golang.org/api v0.103.0
)

require (
	cloud.google.com/go v0.107.0 // indirect
	cloud.google.com/go/compute v1.13.0 // indirect
	cloud.google.com/go/compute/metadata v0.2.2 // indirect
	cloud.google.com/go/iam v0.7.0 // indirect
	github.com/golang/groupcache v0.0.0-20210331224755-41bb18bfe9da // indirect
	github.com/golang/protobuf v1.5.2 // indirect
	github.com/google/go-cmp v0.5.9 // indirect
	github.com/google/uuid v1.3.0 // indirect
	github.com/googleapis/enterprise-certificate-proxy v0.2.0 // indirect
	github.com/googleapis/gax-go/v2 v2.7.0 // indirect
	github.com/itchyny/gojq v0.12.12 // indirect
	github.com/itchyny/timefmt-go v0.1.5 // indirect
	github.com/robfig/cron/v3 v3.0.1 // indirect
	github.com/vektah/gqlparser/v2 v2.5.1 // indirect
	go.opencensus.io v0.24.0 // indirect
	golang.org/x/net v0.2.0 // indirect
	golang.org/x/oauth2 v0.2.0 // indirect
	golang.org/x/sync v0.1.0 // indirect
	golang.org/x/sys v0.5.0 // indirect
	golang.org/x/text v0.4.0 // indirect
	golang.org/x/xerrors v0.0.0-20220907171357-04be3eba64a2 // indirect
	google.golang.org/appengine v1.6.7 // indirect
	google.golang.org/genproto v0.0.0-20221201204527-e3fa12d562f3 // indirect
	google.golang.org/grpc v1.51.0 // indirect
	google.golang.org/protobuf v1.28.1 // indirect
	mvdan.cc/sh/v3 v3.6.0 // indirect
)
